................
----------------------------------------------------------------------
Ran 16 tests in 0.018s

OK
Name             Stmts   Miss Branch BrPart  Cover   Missing
------------------------------------------------------------
Collatz.py          32      0      8      0   100%
TestCollatz.py      69      0      2      0   100%
------------------------------------------------------------
TOTAL              101      0     10      0   100%
