...............
----------------------------------------------------------------------
Ran 15 tests in 0.713s

OK
Name             Stmts   Miss Branch BrPart  Cover   Missing
------------------------------------------------------------
Collatz.py          33      0     12      0   100%
TestCollatz.py      66      0      2      0   100%
------------------------------------------------------------
TOTAL               99      0     14      0   100%
